{
  "name": "backend",
  "version": "1.0.0",
  "description": "",
  "main": "index.js",
  "type": "module",
  "scripts": {
    "test": "echo \"Error: no test specified\" && exit 1",
    "start": "nodemon index.js"
  },
  "keywords": [],
  "author": "",
  "license": "ISC",
  "dependencies": {
    "axios": "^1.1.3",
    "cors": "^2.8.5",
    "express": "^4.18.2",
    "mysql": "^2.18.1",
    "mysql2": "^2.3.3",
    "nodemon": "^2.0.20"
  }
}
